01 http://kbhnbx:RFnDztb35K@31.184.233.85:24531 abipsdatun Onf2KRew1Z ivan9k64met@mail.ru iy3IMX2N RELIABLE >-38 >-56 >-71.5 >-91 >-72 >-94 >-75 >2005
02 http://kbhnbx:RFnDztb35K@146.185.249.106:24531 Trava79 G7mmUUobXVjpvNPepEDk trava79@bk.ru G7mmUUobXVjpvNPepEDk RELIABLE >2637.5 >2658
04 http://kbhnbx:RFnDztb35K@31.184.235.19:24531 Neonka2 zPETcrBBpZHwytqmiJsL neonka2@bk.ru zPETcrBBpZHwytqmiJsL RELIABLE >10.5 >10.5
05 http://kbhnbx:RFnDztb35K@185.149.241.42:24531 BVV63 V3iLrZXJQtp6ph3XeWmn bvv_63@bk.ru V3iLrZXJQtp6ph3XeWmn RELIABLE >5.5 >4.5
06 http://kbhnbx:RFnDztb35K@94.26.194.64:24531 kiriknik 36998877 ulyanac1bwe@mail.ru q0jerWpx9 RELIABLE >262.5 >262.5
08 http://kbhnbx:RFnDztb35K@185.139.213.101:24531 Astra55 gkXrP8bBwnGemSKcYSby astralisimo55@mail.ru gkXrP8bBwnGemSKcYSby RELIABLE >-90.5 >-107 >-114 >-121 >-91 >843
09 http://kbhnbx:RFnDztb35K@31.184.235.107:24531 ocelabex 137bF3BBBp andrejz50ezuewa@mail.ru vPJLv1F59 RELIABLE >3086 >3069
10 http://kbhnbx:RFnDztb35K@185.149.240.228:24531 Denn29 tVkBTZKCZFcpvqhdXEom denn29@inbox.ru tVkBTZKCZFcpvqhdXEom RELIABLE >-35 >-49 >-54 >203.5
12 http://kbhnbx:RFnDztb35K@94.26.195.88:24531 Nikonofil sJdeGn9P8Gu3oS7GrGvX nikonofil@bk.ru sJdeGn9P8Gu3oS7GrGvX RELIABLE >8 >8
13 http://kbhnbx:RFnDztb35K@185.47.207.83:24531 Antipod66 xdV9TrtphyYr2bQZHxWS antipod66@bk.ru xdV9TrtphyYr2bQZHxWS RELIABLE >-96.5 >-114.5 >-141.5 >50
14 http://kbhnbx:RFnDztb35K@94.26.192.32:24531 NPC0001 Zc2LJbKPtWwJ7KSnEVcP npc0001@mail.ru Zc2LJbKPtWwJ7KSnEVcP RELIABLE >13 >13
15 http://kbhnbx:RFnDztb35K@185.47.205.235:24531 KapralBel 76AXdQrHETBtAKXVr7i3 kapralbel@mail.ru 76AXdQrHETBtAKXVr7i3 RELIABLE >-3 >-12 >-25 >393
16 http://kbhnbx:RFnDztb35K@146.185.249.100:24531 Serjik2 fFuHoFnrZU9jUzZ8XdMx serjik2@inbox.ru fFuHoFnrZU9jUzZ8XdMx RELIABLE >19 >20
17 http://kbhnbx:RFnDztb35K@146.185.249.109:24531 kopacb I0wIQNQfJ2oT846vTP5C potapmadaevr3k@mail.ru dF78Z1Ru RELIABLE >2310.5 >2312.5 
19 http://kbhnbx:RFnDztb35K@31.184.235.60:24531 franzykman xPaa3wVHJgvfptCC7FSR franzykman@mail.ru xPaa3wVHJgvfptCC7FSR RELIABLE >-55.5 >-90.5 >-79 >-58 >4412
20 http://kbhnbx:RFnDztb35K@94.26.195.56:24531 kivido 101364 galina08wz@mail.ru muQ72ss3rr RELIABLE >144.5 >144.5
21 http://kbhnbx:RFnDztb35K@31.184.235.55:24531 rarecrepa r7Uu7IYx7x ewelinamjbbsh@mail.ru W568tP3c RELIABLE >102.5 >102.5
22 http://kbhnbx:RFnDztb35K@31.184.235.75:24531 winddustselfle RG9CqUEp2u alfred38zab@mail.ru qTeLfF03mX RELIABLE >15 >15
23 http://kbhnbx:RFnDztb35K@185.149.240.29:24531 dialmak qNKxyacNXXJqVphcX7Am dialmak@mail.ru qNKxyacNXXJqVphcX7Am RELIABLE >25 >24
24 http://kbhnbx:RFnDztb35K@31.184.233.14:24531 Chauvinist sc3m8BZTg52esZkWiTxG chauvinist@bk.ru sc3m8BZTg52esZkWiTxG RELIABLE >33 >32
19 http://kbhnbx:RFnDztb35K@146.185.249.123:24531 Gulftown PeDEX8x3Ymb4NYabnaS2 gulftown@bk.ru PeDEX8x3Ymb4NYabnaS2 RELIABLE >0 >8
19 http://kbhnbx:RFnDztb35K@94.26.192.205:24531 Finnita pgNzsQ96VSPRa5UtDb6a finn-93@bk.ru pgNzsQ96VSPRa5UtDb6a >0 >18
10 http://kbhnbx:RFnDztb35K@31.184.235.99:24531 mrDenchik007 MuZWjejdUAYH7dJMfrCS mister.denchik007@mail.ru MuZWjejdUAYH7dJMfrCS >15
24 http://kbhnbx:RFnDztb35K@185.47.205.248:24531 Loxxx1 3hbCfirxgmK4HpiATLiJ loxxx2007@bk.ru 3hbCfirxgmK4HpiATLiJ >-12 >-7 >68
20 http://kbhnbx:RFnDztb35K@185.47.204.213:24531 vzar ro2HoNjss7RkUFFAeSVA vzar0001@mail.ru ro2HoNjss7RkUFFAeSVA >-25 >-34 >1 >37
06 http://kbhnbx:RFnDztb35K@185.149.241.95:24531 AntiMember YzXPFqqQYQnfJR5TkF8L antimember@mail.ru YzXPFqqQYQnfJR5TkF8L >2130
26 http://kbhnbx:RFnDztb35K@185.149.240.75:24531 Yansonen CJ8UhbLzQkncS5JeLUtm yansonen@mail.ru CJ8UhbLzQkncS5JeLUtm >-1 >58
21 http://kbhnbx:RFnDztb35K@146.185.249.161:24531 Alukardd ij8FyyVgYsCnLP4xpdT5 alukard_ru@mail.ru ij8FyyVgYsCnLP4xpdT5 >-34 >218
23 http://kbhnbx:RFnDztb35K@94.26.192.206:24531 cracklover vQ7nMS9HdVvDpPnThppp cracklover@inbox.ru vQ7nMS9HdVvDpPnThppp >251
13 http://kbhnbx:RFnDztb35K@185.47.207.161:24531 hunter7007 VuvWdo2rYbwd9Wh2em9p hunter7007@inbox.ru VuvWdo2rYbwd9Wh2em9p >-15
04 http://kbhnbx:RFnDztb35K@185.47.207.107:24531 urodliv xZw9j3xVyoVUaYcHxumq urodl_iv@mail.ru xZw9j3xVyoVUaYcHxumq
01 http://kbhnbx:RFnDztb35K@94.26.195.71:24531 Akam.1 Kvy4sFsbDMYHpvwgcXfP akam1@inbox.ru Kvy4sFsbDMYHpvwgcXfP