1 http://kbhnbx:RFnDztb35K@185.139.213.140:24531 killer9171 215255 konstantinsyedo@mail.ru zqqg9Sv6 BLOCK 
2 http://kbhnbx:RFnDztb35K@146.185.249.106:24531 britvas n41vy38Iq ninatecjb@mail.ru Z4d4tJ00m BLOCK 
3 http://kbhnbx:RFnDztb35K@185.139.213.203:24531 kaka4a 110000 alewtinaibwxb@mail.ru n5x1WJbY BLOCK 
4 http://kbhnbx:RFnDztb35K@31.184.233.81:24531 kama0590 0625082k fyodorrhtr@mail.ru x16pW947mi BLOCK 
5 http://kbhnbx:RFnDztb35K@31.184.235.83:24531 kartez2000 123123 sofiyasimsl@mail.ru rqz80tlmQd BLOCK 
6 http://kbhnbx:RFnDztb35K@185.139.215.15:24531 katashe131 2274313 olyakz5b5@mail.ru rxb5ccPt6 BLOCK  
8 http://kbhnbx:RFnDztb35K@94.26.192.11:24531 petras s7z3iiLskI roksanau5u@mail.ru yZToPA97 BLOCK 
9 http://kbhnbx:RFnDztb35K@31.184.235.60:24531 kargintima ybuhfr gerasimdec8pr@mail.ru H2tLj8930 BLOCK 
10 http://kbhnbx:RFnDztb35K@146.185.249.123:24531 kartcent 123qweas natalyad54ag@mail.ru i4jljjsH BLOCK 
11 http://kbhnbx:RFnDztb35K@185.47.205.188:24531 koly4ka001 G228NK135 adamwcbbl@mail.ru Jg3o8W4f BLOCK 
12 http://kbhnbx:RFnDztb35K@185.139.215.181:24531 igor9mm t9p12Gmm6w stanislawab75km@mail.ru kxi2Y8ujn BLOCK 
13 http://kbhnbx:RFnDztb35K@185.149.240.59:24531 kirklim gadgad slaviktru3f2k@mail.ru MFTkGMpu1 BLOCK 
14 http://kbhnbx:RFnDztb35K@94.26.194.135:24531 grinnestcusob 9P2dnUUwUv alfredcu1za@mail.ru D8MJ9ybf BLOCK 
15 http://kbhnbx:RFnDztb35K@185.139.213.136:24531 etepfici w9HoOl5DJb tatyanal9p@mail.ru zT9sFn5An5 BLOCK 
16 http://kbhnbx:RFnDztb35K@185.149.240.127:24531 kazuc 1506589 valentinnom4x7z@mail.ru ql4cHjtD1b BLOCK 
17 http://kbhnbx:RFnDztb35K@146.185.249.28:24531 kamazzz21 dimaskamaz vladilen8hk@mail.ru e4cvwNE7 BLOCK 
18 http://kbhnbx:RFnDztb35K@185.139.213.101:24531 kimenhack 621693 romanbil8o@mail.ru y1vLZ07YO0 BLOCK 
19 http://kbhnbx:RFnDztb35K@31.184.235.115:24531 katya12304 katya_kor maryanapis5usn@mail.ru xt8bgHd31 BLOCK 
20 http://kbhnbx:RFnDztb35K@185.139.213.172:24531 kat3959 kat28rina makarche8h@mail.ru fDs02ez61 BLOCK 
21 http://kbhnbx:RFnDztb35K@185.47.207.161:24531 leonid5 GIhXCysAw9 vladilen7f1sb@mail.ru pgqwU4sZd0 BLOCK 
22 http://kbhnbx:RFnDztb35K@185.139.213.13:24531 kblc9l 23031987 lyudmilacuhrma@mail.ru G4RHCLp5p BLOCK 
23 http://kbhnbx:RFnDztb35K@185.149.240.29:24531 kiv89 rxt5prat sashatvxs@mail.ru baY4QP339 BLOCK 
24 http://kbhnbx:RFnDztb35K@94.26.194.44:24531 karkyshka uchkuduk daryace89@mail.ru y9ZTeam38 BLOCK 
25 http://kbhnbx:RFnDztb35K@31.184.235.53:24531 kisik3 190686 klaray1l@mail.ru sj38tDf00z BLOCK 
26 http://kbhnbx:RFnDztb35K@185.149.240.228:24531 killoch Slimestkool borisparuw@mail.ru Xsjz00Ljq BLOCK 
27 http://kbhnbx:RFnDztb35K@185.149.240.175:24531 kaisserhaff maximus16 olyanikysld@mail.ru m0S6L538N BLOCK 
28 http://kbhnbx:RFnDztb35K@94.26.192.124:24531 kid007 lvbnhbq1983 timurpakddu@mail.ru meUb63nx BLOCK 
29 http://kbhnbx:RFnDztb35K@146.185.249.40:24531 kenny106 kfgjxrf elenazhi8u@mail.ru sAm192E4zN BLOCK 
30 http://kbhnbx:RFnDztb35K@185.149.240.105:24531 kbozdik jetset egorpevnp@mail.ru ba2dHb7b BLOCK 
31 http://kbhnbx:RFnDztb35K@94.26.192.205:24531 aleksandrkurn Vf0gg5j54q lyubomir1aw7z@mail.ru s58fK22j BLOCK 
32 http://kbhnbx:RFnDztb35K@94.26.192.155:24531 mikhaildb aiA453Rzo katya0rtto@mail.ru p2r8hnNp BLOCK 
33 http://kbhnbx:RFnDztb35K@185.149.240.15:24531 katterham rinat123 zhannado0vy@mail.ru fNG674H4 BLOCK 
34 http://kbhnbx:RFnDztb35K@185.139.213.190:24531 kl9n 464646 lyonyaanc8v@mail.ru tOFdobqk2 BLOCK 
35 http://kbhnbx:RFnDztb35K@31.184.235.19:24531 kaban7610 99999977 leopoldyad464@mail.ru L5Xsl9yi11 BLOCK 
36 http://kbhnbx:RFnDztb35K@94.26.195.88:24531 kennympei glinko vladlenl8nare@mail.ru n882ix0C BLOCK 
37 http://kbhnbx:RFnDztb35K@146.185.249.161:24531 katiish rockrock slaviklobd6f@mail.ru orIKKDr65 BLOCK 
38 http://kbhnbx:RFnDztb35K@146.185.249.39:24531 kipriano T4rd67 eduard9bl@mail.ru d8H0V83v42 BLOCK 
39 http://kbhnbx:RFnDztb35K@185.47.204.124:24531 kenenbek fizika1 fyodorgalwds4@mail.ru p7RlvpGha BLOCK 
40 http://kbhnbx:RFnDztb35K@94.26.195.71:24531 kempriol 1458000 allas413xu@mail.ru cdr4myR6x BLOCK 
41 http://kbhnbx:RFnDztb35K@146.185.249.100:24531 vasilek88 0tuMpjjn alyonaolqj@mail.ru aXZixIu5 BLOCK 
42 http://kbhnbx:RFnDztb35K@146.185.249.75:24531 kap0ne hs6bywtdjktu stepan7nc7gru@mail.ru nxfq68Hb BLOCK 
43 http://kbhnbx:RFnDztb35K@185.47.207.107:24531 borisserb H4t967Hv albertsuxq2tu@mail.ru yt883pj0I BLOCK 
44 http://kbhnbx:RFnDztb35K@31.184.233.74:24531 karasov cthtirf lizakritp@mail.ru qe91WJrR79 BLOCK 
45 http://kbhnbx:RFnDztb35K@94.26.192.206:24531 viktorvor bFLg0t2u8 vadimzy7k@mail.ru p8pIsr941r BLOCK 